{
  "project_info": {
    "project_number": "464156898964",
    "firebase_url": "https://suraschool-15f07.firebaseio.com",
    "project_id": "suraschool-15f07",
    "storage_bucket": "suraschool-15f07.appspot.com"
  },
  "client": [
    {
      "client_info": {
        "mobilesdk_app_id": "1:464156898964:android:60ffe9971a7bd8f4",
        "android_client_info": {
          "package_name": "com.sura.eleventh"
        }
      },
      "oauth_client": [
        {
          "client_id": "464156898964-pkpkeqfe6b2dnoqg9eh2ia1d66sg2tk2.apps.googleusercontent.com",
          "client_type": 1,
          "android_info": {
            "package_name": "com.sura.eleventh",
            "certificate_hash": "90c0b1b1b1b12f1f7249af0fe983ce22622c29b7"
          }
        },
        {
          "client_id": "464156898964-e8bpu9m91kmn135cgkmst25s08k46gm9.apps.googleusercontent.com",
          "client_type": 3
        }
      ],
      "api_key": [
        {
          "current_key": "AIzaSyDPvV0ZaNWS_WNiKdsMYKWd1Fgmqf27SY0"
        }
      ],
      "services": {
        "appinvite_service": {
          "other_platform_oauth_client": [
            {
              "client_id": "464156898964-e8bpu9m91kmn135cgkmst25s08k46gm9.apps.googleusercontent.com",
              "client_type": 3
            }
          ]
        }
      }
    },
    {
      "client_info": {
        "mobilesdk_app_id": "1:464156898964:android:a6c1c4b5a4c44022",
        "android_client_info": {
          "package_name": "com.sura.tenthapp"
        }
      },
      "oauth_client": [
        {
          "client_id": "464156898964-3a51273uc9mgnc2goadm3cgp4mknop02.apps.googleusercontent.com",
          "client_type": 1,
          "android_info": {
            "package_name": "com.sura.tenthapp",
            "certificate_hash": "90c0b1b1b1b12f1f7249af0fe983ce22622c29b7"
          }
        },
        {
          "client_id": "464156898964-e8bpu9m91kmn135cgkmst25s08k46gm9.apps.googleusercontent.com",
          "client_type": 3
        }
      ],
      "api_key": [
        {
          "current_key": "AIzaSyDPvV0ZaNWS_WNiKdsMYKWd1Fgmqf27SY0"
        }
      ],
      "services": {
        "appinvite_service": {
          "other_platform_oauth_client": [
            {
              "client_id": "464156898964-e8bpu9m91kmn135cgkmst25s08k46gm9.apps.googleusercontent.com",
              "client_type": 3
            }
          ]
        }
      }
    },
    {
      "client_info": {
        "mobilesdk_app_id": "1:464156898964:android:de526809b2b8ac80",
        "android_client_info": {
          "package_name": "com.sura.twelfthapp"
        }
      },
      "oauth_client": [
        {
          "client_id": "464156898964-kesltqpgq2dgc2qtpljao3kk2g6tkok7.apps.googleusercontent.com",
          "client_type": 1,
          "android_info": {
            "package_name": "com.sura.twelfthapp",
            "certificate_hash": "90c0b1b1b1b12f1f7249af0fe983ce22622c29b7"
          }
        },
        {
          "client_id": "464156898964-e8bpu9m91kmn135cgkmst25s08k46gm9.apps.googleusercontent.com",
          "client_type": 3
        }
      ],
      "api_key": [
        {
          "current_key": "AIzaSyDPvV0ZaNWS_WNiKdsMYKWd1Fgmqf27SY0"
        }
      ],
      "services": {
        "appinvite_service": {
          "other_platform_oauth_client": [
            {
              "client_id": "464156898964-e8bpu9m91kmn135cgkmst25s08k46gm9.apps.googleusercontent.com",
              "client_type": 3
            }
          ]
        }
      }
    },
    {
      "client_info": {
        "mobilesdk_app_id": "1:464156898964:android:6f0ad2742c7d7e7f6ba681",
        "android_client_info": {
          "package_name": "com.suraapps.tenth"
        }
      },
      "oauth_client": [
        {
          "client_id": "464156898964-e8bpu9m91kmn135cgkmst25s08k46gm9.apps.googleusercontent.com",
          "client_type": 3
        }
      ],
      "api_key": [
        {
          "current_key": "AIzaSyDPvV0ZaNWS_WNiKdsMYKWd1Fgmqf27SY0"
        }
      ],
      "services": {
        "appinvite_service": {
          "other_platform_oauth_client": [
            {
              "client_id": "464156898964-e8bpu9m91kmn135cgkmst25s08k46gm9.apps.googleusercontent.com",
              "client_type": 3
            }
          ]
        }
      }
    }
  ],
  "configuration_version": "1"
}